…
## Exploring Data

### Grouping power consumption by state


```r
data %>% 
  group_by(UF) %>% 
  summarise(total = sum(Consumo)) -> consumo_uf

consumo_uf
```

```
## # A tibble: 27 × 2
##    UF         total
##    <fct>      <dbl>
##  1 AC      6793803.
##  2 AL     31268557.
##  3 AM     42512102.
##  4 AP      7295073.
##  5 BA    171424584.
##  6 CE     78753004.
##  7 DF     44622504.
##  8 ES     72360784.
##  9 GO    102270151.
## 10 MA     55072237.
## # … with 17 more rows
```


### Grouping consumption by month



```r
montlhy_consumption <- data %>% group_by(year_month) %>% 
  summarise(total=sum(Consumo))

montlhy_consumption
```

```
## # A tibble: 84 × 2
##    year_month     total
##         <mth>     <dbl>
##  1   2013 Jan 38270535.
##  2   2013 Feb 37900840.
##  3   2013 Mar 38336775.
##  4   2013 Apr 38540012.
##  5   2013 May 38228946.
##  6   2013 Jun 37515629.
##  7   2013 Jul 37582253.
##  8   2013 Aug 38496100.
##  9   2013 Sep 38385760.
## 10   2013 Oct 39272603.
## # … with 74 more rows
```


### Grouping consumption by quarter


  

```r
quartely_consumption <- data %>% group_by(year_quarter) %>% 
  summarize(total=sum(Consumo))
quartely_consumption
```

```
## # A tibble: 28 × 2
##    year_quarter      total
##           <qtr>      <dbl>
##  1      2013 Q1 114508149.
##  2      2013 Q2 114284587.
##  3      2013 Q3 114464113.
##  4      2013 Q4 118515331.
##  5      2014 Q1 121212073 
##  6      2014 Q2 115469437.
##  7      2014 Q3 114300225 
##  8      2014 Q4 119907290.
##  9      2015 Q1 120785073.
## 10      2015 Q2 114591229.
## # … with 18 more rows
```
…
#### Joining IPCA + Power Consumption datasets



```r
ipca_consumption <- montlhy_consumption %>% left_join(ipca, by=c(year_month="data"))
ipca_consumption
```

```
## # A tibble: 84 × 7
##    year_month     total valor ipca_3 ipca_12 ipca_24 ipca_36
##         <mth>     <dbl> <dbl>  <dbl>   <dbl>   <dbl>   <dbl>
##  1   2013 Jan 38270535.  0.86  2.27     6.15    12.8    19.5
##  2   2013 Feb 37900840.  0.6   2.27     6.31    12.5    19.3
##  3   2013 Mar 38336775.  0.47  1.94     6.59    12.2    19.2
##  4   2013 Apr 38540012.  0.55  1.63     6.49    11.9    19.2
##  5   2013 May 38228946.  0.37  1.40     6.50    11.8    19.1
##  6   2013 Jun 37515629.  0.26  1.18     6.70    11.9    19.5
##  7   2013 Jul 37582253.  0.03  0.661    6.27    11.8    19.5
##  8   2013 Aug 38496100.  0.24  0.531    6.09    11.7    19.7
##  9   2013 Sep 38385760.  0.35  0.621    5.86    11.5    19.6
## 10   2013 Oct 39272603.  0.57  1.16     5.84    11.6    19.4
## # … with 74 more rows
```
…
```r
lag_size = 1


ipca_consumption_lagged <- montlhy_consumption %>%
  left_join( 
    ipca %>% lag_columns(columns = c('ipca_3', 'ipca_12', 'ipca_24', 'ipca_36'), lag_size=lag_size),
    by=c(year_month = 'data')
  )

ipca_consumption_lagged
```

```
## # A tibble: 84 × 7
##    year_month     total valor ipca_3 ipca_12 ipca_24 ipca_36
##         <mth>     <dbl> <dbl>  <dbl>   <dbl>   <dbl>   <dbl>
##  1   2013 Jan 38270535.  0.86  1.99     5.84    12.7    19.4
##  2   2013 Feb 37900840.  0.6   2.27     6.15    12.8    19.5
##  3   2013 Mar 38336775.  0.47  2.27     6.31    12.5    19.3
##  4   2013 Apr 38540012.  0.55  1.94     6.59    12.2    19.2
##  5   2013 May 38228946.  0.37  1.63     6.49    11.9    19.2
##  6   2013 Jun 37515629.  0.26  1.40     6.50    11.8    19.1
##  7   2013 Jul 37582253.  0.03  1.18     6.70    11.9    19.5
##  8   2013 Aug 38496100.  0.24  0.661    6.27    11.8    19.5
##  9   2013 Sep 38385760.  0.35  0.531    6.09    11.7    19.7
## 10   2013 Oct 39272603.  0.57  0.621    5.86    11.5    19.6
## # … with 74 more rows
```
…
#### Reading data

##### Annual current adjusted values


```r
pib_url_current <- 'https://servicodados.ibge.gov.br/api/v3/agregados/6784/periodos/1996|1997|1998|1999|2000|2001|2002|2003|2004|2005|2006|2007|2008|2009|2010|2011|2012|2013|2014|2015|2016|2017|2018|2019/variaveis/9808?localidades=N1[all]'

pib_data <- get_pib_data(pib_url_current)

pib_data 
```

```
## # A tibble: 24 × 2
##    year      pib
##    <chr>   <dbl>
##  1 1996   854764
##  2 1997   952089
##  3 1998  1002351
##  4 1999  1087710
##  5 2000  1199092
##  6 2001  1315755
##  7 2002  1488787
##  8 2003  1717950
##  9 2004  1957751
## 10 2005  2170585
## # … with 14 more rows
```


##### Quarterly current adjusted values


```r
pib_url_quarter <- 'https://servicodados.ibge.gov.br/api/v3/agregados/2072/periodos/200001|200002|200003|200004|200101|200102|200103|200104|200201|200202|200203|200204|200301|200302|200303|200304|200401|200402|200403|200404|200501|200502|200503|200504|200601|200602|200603|200604|200701|200702|200703|200704|200801|200802|200803|200804|200901|200902|200903|200904|201001|201002|201003|201004|201101|201102|201103|201104|201201|201202|201203|201204|201301|201302|201303|201304|201401|201402|201403|201404|201501|201502|201503|201504|201601|201602|201603|201604|201701|201702|201703|201704|201801|201802|201803|201804|201901|201902|201903|201904|202001|202002|202003|202004|202101|202102|202103|202104/variaveis/933?localidades=N1[all]'

quarter_pib <- get_pib_data(pib_url_quarter)

quarter_pib 
```

```
## # A tibble: 88 × 2
##    year      pib
##    <chr>   <dbl>
##  1 200001 276927
##  2 200002 292789
##  3 200003 308896
##  4 200004 320481
##  5 200101 312470
##  6 200102 323724
##  7 200103 332524
##  8 200104 347038
##  9 200201 342297
## 10 200202 367363
## # … with 78 more rows
```
…
pib_consumption_yearly <- yearly_consumption %>%
  mutate(year = as.character(year)) %>% 
  left_join(pib_data, c(year='year'))

pib_consumption_yearly_lagged <- yearly_consumption %>%
  mutate(year = as.character(year)) %>% 
  left_join(pib_data %>% lag_columns(c('pib'), lag_size_pib),
            c('year'='year'))

pib_consumption_quarterly
```

```
## # A tibble: 28 × 3
##    year_quarter      total     pib
##           <qtr>      <dbl>   <dbl>
##  1      2013 Q1 114508149. 1241613
##  2      2013 Q2 114284587. 1322580
##  3      2013 Q3 114464113. 1354134
##  4      2013 Q4 118515331. 1413292
##  5      2014 Q1 121212073  1385982
##  6      2014 Q2 115469437. 1422323
##  7      2014 Q3 114300225  1462126
##  8      2014 Q4 119907290. 1508522
##  9      2015 Q1 120785073. 1456654
## 10      2015 Q2 114591229. 1479965
## # … with 18 more rows
```

```r
pib_consumption_quarterly_lagged
```

```
## # A tibble: 28 × 3
##    year_quarter      total     pib
##           <qtr>      <dbl>   <dbl>
##  1      2013 Q1 114508149. 1271711
##  2      2013 Q2 114284587. 1241613
##  3      2013 Q3 114464113. 1322580
##  4      2013 Q4 118515331. 1354134
##  5      2014 Q1 121212073  1413292
##  6      2014 Q2 115469437. 1385982
##  7      2014 Q3 114300225  1422323
##  8      2014 Q4 119907290. 1462126
##  9      2015 Q1 120785073. 1508522
## 10      2015 Q2 114591229. 1456654
## # … with 18 more rows
```
…
#### Visualizing moving averages in prices


```r
iron_ore %>% pivot_longer( cols = c("Price" ,"ma_12",  "ma_24",  "ma_36"))
```

```
## # A tibble: 720 × 4
##       Month Change name  value
##       <mth> <chr>  <chr> <dbl>
##  1 2007 May -      Price  2.07
##  2 2007 May -      ma_12 NA   
##  3 2007 May -      ma_24 NA   
##  4 2007 May -      ma_36 NA   
##  5 2007 Jun -4.20% Price  1.98
##  6 2007 Jun -4.20% ma_12 NA   
##  7 2007 Jun -4.20% ma_24 NA   
##  8 2007 Jun -4.20% ma_36 NA   
##  9 2007 Jul 0.74%  Price  2   
## 10 2007 Jul 0.74%  ma_12 NA   
## # … with 710 more rows
```
…
#### Industrial and iron-ore relationship


```r
data_by_sector %>% filter(SetorN1 == 'Industrial') %>% select(-SetorN2) %>% 
  left_join(iron_ore, by=c(year_month='Month')) -> industrial_iron_price

industrial_iron_price
```

```
## # A tibble: 84 × 8
##    year_month SetorN1       total Price Change ma_12 ma_24 ma_36
##         <mth> <fct>         <dbl> <dbl> <chr>  <dbl> <dbl> <dbl>
##  1   2013 Jan Industrial 14314808  3.06 14.25%  2.54  2.65  2.64
##  2   2013 Feb Industrial 14732023  3.05 -0.24%  2.60  2.65  2.66
##  3   2013 Mar Industrial 15087880  2.77 -9.17%  2.61  2.64  2.67
##  4   2013 Apr Industrial 15528400  2.75 -0.71%  2.61  2.64  2.66
##  5   2013 May Industrial 15500919  2.52 -8.56%  2.60  2.63  2.65
##  6   2013 Jun Industrial 15260445  2.49 -1.04%  2.58  2.62  2.65
##  7   2013 Jul Industrial 15420089  2.86 14.81%  2.60  2.62  2.66
##  8   2013 Aug Industrial 15814560  3.21 12.11%  2.68  2.64  2.68
##  9   2013 Sep Industrial 15500755  3.05 -4.82%  2.77  2.64  2.7 
## 10   2013 Oct Industrial 15716253  2.91 -4.64%  2.82  2.65  2.71
## # … with 74 more rows
```
…
