…
```r
temperature_data_summary_weighted_general.f <- temperature_data_summary_weighted_general %>%
  filter(region == 'S') %>% 
  select(-region, -percentage, -unique_key)

temperature_data_summary_weighted_general.f$mean_temp_3 <- temperature_data_summary_weighted_general.f$weighted_temp %>% rollmean(k=3, na.pad = T, align = 'right')
temperature_data_summary_weighted_general.f$mean_max_temp_3 <- temperature_data_summary_weighted_general.f$weighted_temp_max %>% rollmean(k=3, na.pad = T, align = 'right')
temperature_data_summary_weighted_general.f$mean_temp_6 <- temperature_data_summary_weighted_general.f$weighted_temp %>% rollmean(k=6, na.pad = T, align = 'right')

temperature_data_summary_weighted_general.f
```

```
## # A tibble: 84 × 10
## # Groups:   year_month [84]
##    year_month mean_temp max_temp weighted_temp weighted_temp_max equal_weight
##         <mth>     <dbl>    <dbl>         <dbl>             <dbl>        <dbl>
##  1   2013 Jan      22.1     38            24.0              38.5         24.6
##  2   2013 Feb      22.4     38.8          24.4              38.3         24.8
##  3   2013 Mar      20.2     36.2          23.8              39.1         24.4
##  4   2013 Apr      18.8     33.9          22.2              37.0         23.2
##  5   2013 May      16.0     35            20.9              37.3         22.2
##  6   2013 Jun      14.6     31.5          20.4              34.3         21.6
##  7   2013 Jul      13.5     36.8          19.4              35.8         20.7
##  8   2013 Aug      13.9     35.1          20.0              37.4         21.4
##  9   2013 Sep      16.7     36.5          22.0              39.6         23.2
## 10   2013 Oct      18.6     35.9          22.7              38.8         23.8
## # … with 74 more rows, and 4 more variables: equal_weight_max <dbl>,
## #   mean_temp_3 <dbl>, mean_max_temp_3 <dbl>, mean_temp_6 <dbl>
```
…
```r
temperature_data_summary_weighted_residential.f <- temperature_data_summary_weighted_residential %>%
  filter(region == 'S') %>% 
  select(-region, -percentage, -unique_key)

temperature_data_summary_weighted_residential.f$mean_temp_3 <- temperature_data_summary_weighted_residential.f$weighted_temp %>% rollmean(k=3, na.pad = T, align = 'right')
temperature_data_summary_weighted_residential.f$mean_max_temp_3 <- temperature_data_summary_weighted_residential.f$weighted_temp_max %>% rollmean(k=3, na.pad = T, align = 'right')
temperature_data_summary_weighted_residential.f$mean_temp_6 <- temperature_data_summary_weighted_residential.f$weighted_temp %>% rollmean(k=6, na.pad = T, align = 'right')

temperature_data_summary_weighted_residential.f
```

```
## # A tibble: 84 × 10
## # Groups:   year_month [84]
##    year_month mean_temp max_temp weighted_temp weighted_temp_max equal_weight
##         <mth>     <dbl>    <dbl>         <dbl>             <dbl>        <dbl>
##  1   2013 Jan      22.1     38            24.1              38.5         24.6
##  2   2013 Feb      22.4     38.8          24.5              38.3         24.8
##  3   2013 Mar      20.2     36.2          24.0              39.2         24.4
##  4   2013 Apr      18.8     33.9          22.3              37.1         23.2
##  5   2013 May      16.0     35            21.1              37.4         22.2
##  6   2013 Jun      14.6     31.5          20.5              34.4         21.6
##  7   2013 Jul      13.5     36.8          19.5              35.8         20.7
##  8   2013 Aug      13.9     35.1          20.2              37.4         21.4
##  9   2013 Sep      16.7     36.5          22.1              39.6         23.2
## 10   2013 Oct      18.6     35.9          22.8              38.9         23.8
## # … with 74 more rows, and 4 more variables: equal_weight_max <dbl>,
## #   mean_temp_3 <dbl>, mean_max_temp_3 <dbl>, mean_temp_6 <dbl>
```
…
#### Low Income Model


```r
agg_variables_power_low <- ipca_power_df_low %>% 
  left_join(credit_power_df_low%>% select(-total, ), by='year_month') %>% 
  left_join(selic_power_df_low %>% select(-total), by='year_month') %>% 
  select(-credit_mean_36, -credit, -credit_mean_36)

agg_variables_power_low
```

```
## # A tibble: 56 × 15
##    year_month    total valor_ipca ipca_3 ipca_12 ipca_24 ipca_36 credit_current
##         <mth>    <dbl>      <dbl>  <dbl>   <dbl>   <dbl>   <dbl>          <dbl>
##  1   2015 May 1097175.       0.74   2.79    8.47    15.4    22.9        169027.
##  2   2015 Jun 1019900.       0.79   2.26    8.89    16.0    23.8        169033.
##  3   2015 Jul  987529.       0.62   2.17    9.56    16.7    24.0        168692.
##  4   2015 Aug 1020963.       0.22   1.64    9.53    16.7    23.8        163121.
##  5   2015 Sep  994384.       0.54   1.39    9.49    16.9    23.7        161250.
##  6   2015 Oct 1012957.       0.82   1.59    9.93    17.2    24.0        158629.
##  7   2015 Nov 1042710.       1.01   2.39   10.5     17.7    24.5        164410.
##  8   2015 Dec 1087534.       0.96   2.82   10.7     17.8    24.7        172603.
##  9   2016 Jan 1124305        1.27   3.27   10.7     18.6    25.2        145196.
## 10   2016 Feb 1094522        0.9    3.16   10.4     18.9    25.6        147441.
## # … with 46 more rows, and 7 more variables: credit_mean_12 <dbl>,
## #   credit_mean_24 <dbl>, valor_selic <dbl>, selic_03 <dbl>, selic_12 <dbl>,
## #   selic_24 <dbl>, selic_36 <dbl>
```
…
